M48
; DRILL file {KiCad (5.1.6)-1} date 10/08/20 16:24:13
; FORMAT={-:-/ absolute / inch / decimal}
; #@! TF.CreationDate,2020-10-08T16:24:13+02:00
; #@! TF.GenerationSoftware,Kicad,Pcbnew,(5.1.6)-1
FMAT,2
INCH
T1C0.0289
T2C0.0315
T3C0.0394
T4C0.0512
T5C0.0591
T6C0.0598
T7C0.1181
T8C0.0787
T9C0.1181
%
G90
G05
T1
X7.99Y-7.675
X7.99Y-8.012
X8.5264Y-6.1627
X8.5264Y-6.4997
X8.0464Y-6.1627
X8.0464Y-6.4997
X7.715Y-7.675
X7.715Y-8.012
T2
X4.49Y-6.525
X5.19Y-7.55
X5.265Y-7.975
X5.29Y-5.875
X5.39Y-6.25
X6.29Y-6.975
X6.34Y-5.575
X6.49Y-6.2
X6.515Y-4.775
X6.565Y-5.025
X6.66Y-3.1383
X6.815Y-6.725
X6.815Y-7.25
X6.84Y-4.7
X6.84Y-5.35
X7.04Y-7.075
X7.09Y-5.1
X7.86Y-3.26
X8.085Y-3.46
X8.1647Y-6.4997
X8.165Y-6.0
X8.51Y-3.16
X8.91Y-3.66
X9.335Y-3.66
X9.9089Y-3.2927
X5.705Y-3.725
X6.005Y-3.725
X8.685Y-2.86
X8.985Y-2.86
X7.365Y-4.7027
X7.765Y-4.7027
X7.365Y-5.025
X7.665Y-5.025
X8.735Y-3.46
X8.735Y-3.5584
X5.155Y-3.475
X5.455Y-3.475
X7.1114Y-7.9127
X7.1114Y-8.0112
X6.2839Y-3.725
X6.5839Y-3.725
X9.335Y-3.11
X9.335Y-3.2084
X8.4Y-3.06
X8.4984Y-3.06
X7.7864Y-5.8627
X7.7864Y-6.1627
X5.155Y-3.2
X5.455Y-3.2
X8.265Y-5.025
X8.565Y-5.025
X8.3349Y-3.5087
X8.4333Y-3.5087
X8.0864Y-6.7377
X8.3864Y-6.7377
X8.288Y-7.9877
X8.3864Y-7.9877
X4.815Y-4.8
X5.115Y-4.8
X6.665Y-5.2516
X6.665Y-5.35
X6.665Y-6.85
X6.665Y-7.15
X7.2914Y-5.8577
X7.2914Y-5.9562
X5.705Y-3.475
X6.005Y-3.475
X7.965Y-4.7027
X8.265Y-4.7027
X8.685Y-2.685
X8.985Y-2.685
X6.465Y-7.15
X6.465Y-7.2484
X7.2914Y-6.4077
X7.2914Y-6.5062
X5.155Y-3.725
X5.455Y-3.725
X6.6364Y-7.9127
X6.6364Y-8.0112
X8.2916Y-7.275
X8.39Y-7.275
X4.99Y-7.6766
X4.99Y-7.775
X4.69Y-6.8
X4.99Y-6.8
X7.4614Y-7.0627
X7.7614Y-7.0627
X6.8639Y-3.1909
X6.8639Y-3.4909
X6.29Y-5.25
X6.29Y-5.3484
X8.278Y-6.0
X8.3764Y-6.0
X6.09Y-7.1516
X6.09Y-7.25
X7.02Y-3.08
X7.1184Y-3.08
X6.6664Y-6.4077
X6.6664Y-6.5062
X4.815Y-5.025
X5.115Y-5.025
X6.14Y-4.85
X6.14Y-5.15
X7.6236Y-2.9596
X7.6236Y-3.2596
X4.99Y-7.9766
X4.99Y-8.075
X8.2666Y-5.625
X8.365Y-5.625
X7.6177Y-3.5135
X7.9177Y-3.5135
X6.6664Y-5.8577
X6.6664Y-5.9562
X8.1Y-3.7816
X8.1Y-3.88
X6.6364Y-7.4127
X6.6364Y-7.5112
X8.3349Y-3.8487
X8.6349Y-3.8487
X5.24Y-4.06
X5.24Y-4.36
X8.64Y-6.725
X8.64Y-7.025
X5.705Y-3.2
X6.005Y-3.2
X8.288Y-7.625
X8.3864Y-7.625
X8.2666Y-5.25
X8.365Y-5.25
X5.115Y-5.975
X5.115Y-6.0734
X6.2839Y-3.1909
X6.5839Y-3.1909
X4.69Y-7.075
X4.99Y-7.075
X6.2839Y-3.4709
X6.5839Y-3.4709
X7.4614Y-6.7377
X7.8614Y-6.7377
X7.465Y-7.4127
X7.465Y-7.7127
X5.115Y-6.4266
X5.115Y-6.525
X7.1114Y-7.4127
X7.1114Y-7.5112
X6.16Y-2.9816
X6.16Y-3.08
X9.335Y-3.4616
X9.335Y-3.56
T3
X7.21Y-3.385
X7.21Y-3.485
X7.21Y-3.585
X7.21Y-3.885
X7.21Y-3.985
X4.365Y-6.8
X4.365Y-6.9
X7.12Y-2.64
X7.12Y-2.74
X5.49Y-7.575
X5.59Y-7.575
X5.89Y-7.575
X5.99Y-7.575
X6.09Y-7.575
X5.59Y-5.975
X5.69Y-5.975
X5.99Y-5.975
X6.09Y-5.975
X6.19Y-5.975
X4.365Y-4.8
X4.365Y-4.9
X8.06Y-2.935
X8.16Y-2.935
X8.26Y-2.935
X9.0384Y-3.3577
X9.0384Y-3.4577
X9.0384Y-3.5577
T4
X9.7151Y-3.0863
X9.7151Y-3.8737
X11.6049Y-3.0863
X11.6049Y-3.8737
X7.2863Y-5.4151
X7.2863Y-7.3049
X8.0737Y-5.4151
X8.0737Y-7.3049
T5
X9.2Y-5.24
X9.2Y-5.4546
X9.2Y-5.6691
X9.2Y-6.22
X9.2Y-6.4346
X9.2Y-6.6491
T6
X4.215Y-6.325
X4.215Y-6.525
T7
X10.2609Y-4.52
X11.4814Y-4.52
X10.175Y-2.58
X10.9937Y-2.58
X8.8835Y-8.06
X9.5134Y-8.0403
T8
X11.765Y-8.175
X11.765Y-2.5
X4.08Y-8.175
X4.1Y-2.5
T9
X9.565Y-6.95
X9.565Y-4.9
X10.99Y-6.95
X10.99Y-4.9
T0
M30
