(module SOIC127P600X175-8N (layer F.Cu) (tedit 5F63229F)
  (fp_text reference REF** (at -0.730585 -3.762945) (layer F.SilkS)
    (effects (font (size 1.00078 1.00078) (thickness 0.015)))
  )
  (fp_text value SOIC127P600X175-8N (at 7.53543 3.66507) (layer F.Fab)
    (effects (font (size 1.001386 1.001386) (thickness 0.015)))
  )
  (fp_line (start 1.9 2.5) (end -1.9 2.5) (layer F.SilkS) (width 0.2032))
  (fp_line (start -1.9 2.5) (end -1.9 -2.5) (layer F.Fab) (width 0.2032))
  (fp_line (start -1.9 -2.5) (end 1.9 -2.5) (layer F.SilkS) (width 0.2032))
  (fp_line (start 1.9 -2.5) (end 1.9 2.5) (layer F.Fab) (width 0.2032))
  (fp_line (start -1.4 2.5) (end -1.4 -2.5) (layer F.Fab) (width 0.2032))
  (fp_poly (pts (xy -2.80154 -2.45505) (xy -2.30495 -2.45505) (xy -2.30495 -1.35805) (xy -2.80154 -1.35805)) (layer F.Fab) (width 0.01))
  (fp_poly (pts (xy -2.79621 -1.18505) (xy -2.30495 -1.18505) (xy -2.30495 -0.084982) (xy -2.79621 -0.084982)) (layer F.Fab) (width 0.01))
  (fp_poly (pts (xy -2.80485 0.08495) (xy -2.30495 0.08495) (xy -2.30495 1.18916) (xy -2.80485 1.18916)) (layer F.Fab) (width 0.01))
  (fp_poly (pts (xy -2.79783 1.35495) (xy -2.30495 1.35495) (xy -2.30495 2.4574) (xy -2.79783 2.4574)) (layer F.Fab) (width 0.01))
  (fp_poly (pts (xy 2.30617 1.35495) (xy 2.79515 1.35495) (xy 2.79515 2.45635) (xy 2.30617 2.45635)) (layer F.Fab) (width 0.01))
  (fp_poly (pts (xy 2.30848 0.08495) (xy 2.79515 0.08495) (xy 2.79515 1.18686) (xy 2.30848 1.18686)) (layer F.Fab) (width 0.01))
  (fp_poly (pts (xy 2.30858 -1.18505) (xy 2.79515 -1.18505) (xy 2.79515 -0.085084) (xy 2.30858 -0.085084)) (layer F.Fab) (width 0.01))
  (fp_poly (pts (xy 2.31119 -2.45505) (xy 2.79515 -2.45505) (xy 2.79515 -1.35861) (xy 2.31119 -1.35861)) (layer F.Fab) (width 0.01))
  (fp_circle (center -3.5 -2.65) (end -3.3 -2.65) (layer F.SilkS) (width 0.1))
  (fp_line (start -3.75 -2.75) (end 3.75 -2.75) (layer F.CrtYd) (width 0.127))
  (fp_line (start 3.75 -2.75) (end 3.75 2.75) (layer F.CrtYd) (width 0.127))
  (fp_line (start 3.75 2.75) (end -3.75 2.75) (layer F.CrtYd) (width 0.127))
  (fp_line (start -3.75 2.75) (end -3.75 -2.75) (layer F.CrtYd) (width 0.127))
  (pad 5 smd rect (at 2.7 1.905) (size 1.55 0.6) (layers F.Cu F.Paste F.Mask))
  (pad 6 smd rect (at 2.7 0.635) (size 1.55 0.6) (layers F.Cu F.Paste F.Mask))
  (pad 8 smd rect (at 2.7 -1.905) (size 1.55 0.6) (layers F.Cu F.Paste F.Mask))
  (pad 4 smd rect (at -2.7 1.905) (size 1.55 0.6) (layers F.Cu F.Paste F.Mask))
  (pad 3 smd rect (at -2.7 0.635) (size 1.55 0.6) (layers F.Cu F.Paste F.Mask))
  (pad 1 smd rect (at -2.7 -1.905) (size 1.55 0.6) (layers F.Cu F.Paste F.Mask))
  (pad 7 smd rect (at 2.7 -0.635) (size 1.55 0.6) (layers F.Cu F.Paste F.Mask))
  (pad 2 smd rect (at -2.7 -0.635) (size 1.55 0.6) (layers F.Cu F.Paste F.Mask))
)
