(module XDCR_ACS780LLRTR-100B-T (layer F.Cu) (tedit 5F631A17)
  (fp_text reference REF** (at 1.445 -4.889) (layer F.SilkS)
    (effects (font (size 1.4 1.4) (thickness 0.015)))
  )
  (fp_text value XDCR_ACS780LLRTR-100B-T (at 17.447 5.111) (layer F.Fab)
    (effects (font (size 1.4 1.4) (thickness 0.015)))
  )
  (fp_line (start 2.4 -3.2) (end 0.62 -3.2) (layer F.SilkS) (width 0.127))
  (fp_line (start -2.4 2.17) (end -2.4 3.2) (layer F.SilkS) (width 0.127))
  (fp_line (start -2.4 3.2) (end -0.62 3.2) (layer F.SilkS) (width 0.127))
  (fp_line (start 2.4 -2.72) (end 2.4 -3.2) (layer F.SilkS) (width 0.127))
  (fp_line (start 2.4 -3.2) (end -2.4 -3.2) (layer F.Fab) (width 0.127))
  (fp_line (start 2.4 3.2) (end 2.4 -3.2) (layer F.Fab) (width 0.127))
  (fp_line (start -2.4 -3.2) (end -2.4 3.2) (layer F.Fab) (width 0.127))
  (fp_line (start -2.4 3.2) (end 2.4 3.2) (layer F.Fab) (width 0.127))
  (fp_line (start 0.62 3.2) (end 2.4 3.2) (layer F.SilkS) (width 0.127))
  (fp_line (start 2.4 3.2) (end 2.4 2.72) (layer F.SilkS) (width 0.127))
  (fp_line (start -2.4 -3.2) (end -2.4 -2.17) (layer F.SilkS) (width 0.127))
  (fp_line (start -0.62 -3.2) (end -2.4 -3.2) (layer F.SilkS) (width 0.127))
  (fp_circle (center -3.8 -1.6) (end -3.7 -1.6) (layer F.SilkS) (width 0.2))
  (fp_circle (center -3.8 -1.6) (end -3.7 -1.6) (layer F.Fab) (width 0.2))
  (fp_line (start 3.45 -3.5) (end -3.55 -3.5) (layer F.CrtYd) (width 0.05))
  (fp_line (start -3.55 -3.5) (end -3.55 3.5) (layer F.CrtYd) (width 0.05))
  (fp_line (start -3.55 3.5) (end 3.45 3.5) (layer F.CrtYd) (width 0.05))
  (fp_line (start 3.45 3.5) (end 3.45 -3.5) (layer F.CrtYd) (width 0.05))
  (pad 7 smd rect (at 0 -2.8) (size 0.6 0.9) (layers F.Cu F.Paste F.Mask))
  (pad 6 smd rect (at 2.35 -1.5) (size 1.7 1.8) (layers F.Cu F.Paste F.Mask))
  (pad 5 smd rect (at 2.35 1.5) (size 1.7 1.8) (layers F.Cu F.Paste F.Mask))
  (pad 4 smd rect (at 0 2.8) (size 0.6 0.9) (layers F.Cu F.Paste F.Mask))
  (pad 3 smd rect (at -2.5 1.6) (size 1.6 0.5) (layers F.Cu F.Paste F.Mask))
  (pad 2 smd rect (at -2.5 0) (size 1.6 0.5) (layers F.Cu F.Paste F.Mask))
  (pad 1 smd rect (at -2.5 -1.6) (size 1.6 0.5) (layers F.Cu F.Paste F.Mask))
)
